{
    "WORD_ACTIVE": "Aktivní",
    "WORD_ALLOWED": "Povoleno",
    "WORD_ASSIGN": "Přiřadit",
    "WORD_CANCELED": "Zrušeno",
    "WORD_CHANNEL": "Kanál",
    "WORD_CHANNELS": "Kanály",
    "WORD_COLOR": "Barva",
    "WORD_CONTAINER": "Kontejner",
    "WORD_CREATED": "Vytvořen",
    "WORD_DEFAULT": "Výchozí",
    "WORD_DENIED": "Zakázáno",
    "WORD_DEVELOPERS": "Vývojáři",
    "WORD_DISABLED_EVENTS": "Zakázané události",
    "WORD_ERROR": "Chyba",
    "WORD_GROUPS": "Skupiny",
    "WORD_HEADS": "Panna",
    "WORD_HOIST": "Oddělené zobrazení",
    "WORD_HOSTNAME": "Název hostitele",
    "WORD_ID": "ID",
    "WORD_JOINED": "Připojen",
    "WORD_LIBRARY": "Knihovna",
    "WORD_MANAGED": "Spravováno",
    "WORD_MAXROLES": "Maximum přiřaditelných rolí",
    "WORD_MEMBER": "Členové",
    "WORD_MENTION": "Zmínka",
    "WORD_MENTIONABLE": "Lze zmínit",
    "WORD_NA": "N/A",
    "WORD_NAME": "Název",
    "WORD_NEW_CHANNEL": "Nový kanál",
    "WORD_NICKNAME": "Přezdívka",
    "WORD_NO": "Ne",
    "WORD_NOLIMIT": "Neomezeno",
    "WORD_NONE": "Žádný",
    "WORD_OLD_CHANNEL": "Starý kanál",
    "WORD_OWNER": "Vlastník",
    "WORD_PLATFORM": "Platforma",
    "WORD_POSITION": "Pozice",
    "WORD_RAM": "RAM",
    "WORD_REQROLES": "Vyžadována role",
    "WORD_ROLE": "Role",
    "WORD_ROLES": "Role",
    "WORD_SERVER": "Server",
    "WORD_SERVERS": "Servery",
    "WORD_SHARD": "Shard",
    "WORD_TAILS": "Orel",
    "WORD_TOPIC": "Téma",
    "WORD_TYPE": "Typ",
    "WORD_UNASSIGN": "Odebrat",
    "WORD_UNAVAILABLE": "Nedostupný",
    "WORD_UPTIME": "Doba provozu",
    "WORD_USER": "Uživatel",
    "WORD_USERS": "Uživatelé",
    "WORD_VALUE": "Hodnota",
    "WORD_VERSION": "Verze",
    "WORD_WEBSITE": "Webová stránka",
    "WORD_YES": "Ano"
}
