{
    "COMMAND_MUSIC_BACK": "atras",
    "COMMAND_MUSIC_FASTFORWARD": "avancerapido",
    "COMMAND_MUSIC_JOIN": "unir",
    "COMMAND_MUSIC_JUMP": "saltara",
    "COMMAND_MUSIC_LEAVE": "salir",
    "COMMAND_MUSIC_PAUSE": "pausa",
    "COMMAND_MUSIC_PLAY": "tocar",
    "COMMAND_MUSIC_PROVIDERS": "proveedores",
    "COMMAND_MUSIC_PURGE": "purgar",
    "COMMAND_MUSIC_QUEUE": "lista",
    "COMMAND_MUSIC_REMOVE": "sacar",
    "COMMAND_MUSIC_REMOVERANGE": "sacarrango",
    "COMMAND_MUSIC_REPEAT": "repetir",
    "COMMAND_MUSIC_REWIND": "rebobinar",
    "COMMAND_MUSIC_SEEK": "buscar",
    "COMMAND_MUSIC_SHUFFLE": "mezclar",
    "COMMAND_MUSIC_SKIP": "saltar",
    "COMMAND_MUSIC_STOP": "parar",
    "DESCRIPTION_MUSIC": "Reproductor de Música de Ayana",
    "DESCRIPTION_MUSIC_BACK": "Retroceder a la canción anterior",
    "DESCRIPTION_MUSIC_DEBUG": "Muestra información de depuración de la música",
    "DESCRIPTION_MUSIC_FASTFORWARD": "Acelera la canción actual",
    "DESCRIPTION_MUSIC_JOIN": "Unirse a un canal de voz",
    "DESCRIPTION_MUSIC_JUMP": "Saltar a una canción específica",
    "DESCRIPTION_MUSIC_LEAVE": "Salir de los canales",
    "DESCRIPTION_MUSIC_PAUSE": "Activar/Desactivar pausa",
    "DESCRIPTION_MUSIC_PLAY": "Tocar la cola",
    "DESCRIPTION_MUSIC_PROVIDERS": "Mostrar la lista de proveedores de música compatibles",
    "DESCRIPTION_MUSIC_PURGE": "Elimina todas las canciones de la cola",
    "DESCRIPTION_MUSIC_QUEUE": "Añadir canciones a la cola",
    "DESCRIPTION_MUSIC_REMOVE": "Eliminar canciones de la cola",
    "DESCRIPTION_MUSIC_REMOVERANGE": "Eliminar canciones entre dos posiciones",
    "DESCRIPTION_MUSIC_REPEAT": "Cambia el modo de repetición",
    "DESCRIPTION_MUSIC_REWIND": "Retroceder canción actual",
    "DESCRIPTION_MUSIC_SEEK": "Ir a una posición en la canción actual",
    "DESCRIPTION_MUSIC_SHUFFLE": "Mezclar la cola",
    "DESCRIPTION_MUSIC_SKIP": "Saltar a la siguiente canción",
    "DESCRIPTION_MUSIC_STOP": "Dejar de tocar",
    "MUSIC_AUTHOR_NO_CHANNEL": "Parece que no estás en ningún canal de voz.",
    "MUSIC_AUTOLEAVE": ":no_entry_sign: Salí del canal por falta de actividad.",
    "MUSIC_BACKSKIPPED": ":arrow_backward: Se retrocedió `{track}`.",
    "MUSIC_BACK_END": "Es el inicio de la cola, no hay nada que retroceder.",
    "MUSIC_EXCEPTION": "Un error ''{severity}'' ha ocurrido: {message}.",
    "MUSIC_JOIN_MESSAGE": ":white_check_mark: Me uní a :speaker:`{voice}`.",
    "MUSIC_JUMPED": "Se ha saltado a `{track}` en la posición **{position}**",
    "MUSIC_LEAVE_MESSAGE": ":no_entry: Me fui y desamarré los canales.",
    "MUSIC_NO_MATCHES": "No pude encontrar ninguna coincidencia coveniente",
    "MUSIC_NO_TRACK_AT_POSITION": "No hay nada en esa posición.",
    "MUSIC_PAUSED": ":play_pause: Reproducción pausada.",
    "MUSIC_QUEUE": "Cola de Música",
    "MUSIC_QUEUED": "Se añadió `{track}` a la cola, en la posición **{position}**.",
    "MUSIC_QUEUED_PLAYLIST": "Se añadieron `{count}` canciones de `{playlist}` a la cola.",
    "MUSIC_QUEUE_CURRENT_FLARE": "{arrow} canción actual",
    "MUSIC_QUEUE_EMPTY": "No hay nada en la cola. Intenta agregar algo con `music play`!",
    "MUSIC_QUEUE_PURGED": "Eliminé `{count}` canciones de la cola.",
    "MUSIC_QUEUE_SHUFFLED": ":twisted_rightwards_arrows: Revolví `{count}` canciones.",
    "MUSIC_RANGE_START_ERROR": "El inicio no puede ser mayor que el final o {size}.",
    "MUSIC_REMOVED": "Eliminé `{track}` de la cola.",
    "MUSIC_REMOVED_COUNT": "Eliminé `{count}` canciones de la cola.",
    "MUSIC_REMOVE_CONFIRM": "¿Seguro que quieres eliminar `{track}`? [y/n]:",
    "MUSIC_REMOVE_MULTI_CONFIRM": "¿Seguro que quieres eliminar `{count}` canciones de la cola? [y/n]:",
    "MUSIC_REPEAT_OFF": ":no_entry: Repetición desactivada.",
    "MUSIC_REPEAT_QUEUE": ":repeat: Repitiendo toda la cola.",
    "MUSIC_REPEAT_TRACK": ":repeat_one: Repitiendo solo una canción.",
    "MUSIC_SEEK_FASTFORWARD": ":fast_forward: Avancé hasta `{position}`.",
    "MUSIC_SEEK_NOT_PLAYING": "No se puede buscar si no hay nada tocando.",
    "MUSIC_SEEK_NOT_SEEKABLE": "No se puede buscar en la canción actual",
    "MUSIC_SEEK_REWIND": ":rewind: Retrocedí hasta `{position}`.",
    "MUSIC_SEEK_TOO_LONG": "La búsqueda es mas que el largo de la canción",
    "MUSIC_SKIPPED": ":arrrow_forward: Salté `{track}`.",
    "MUSIC_SKIP_END": "Es el final de la cola, no hay nada para saltar.",
    "MUSIC_STOPPED": ":stop_button: Reproducción detenida.",
    "MUSIC_TRACKS_CHOOSE": "Varias canciones coinciden, por favor elije una:",
    "MUSIC_TRACK_ERROR": "Ocurrió un error al intentar tocar `{track}`: ```{error}```",
    "MUSIC_UNPAUSED": ":play_pause: Reproducción despausada.",
    "OPTION_MUSIC_FASTFORWARD_AMOUNT_DESCRIPTION": "Cuánto avanzar",
    "OPTION_MUSIC_QUERY_DESCRIPTION": "Link o término de búsqueda",
    "OPTION_MUSIC_QUERY_POSITION_DESCRIPTION": "Posición o título",
    "OPTION_MUSIC_QUEUE_POSITION_DESCRIPTION": "Poner en la lista en esta posición",
    "OPTION_MUSIC_REPEAT_MODE_DESCRIPTION": "Modo repetición",
    "OPTION_MUSIC_REWIND_AMOUNT_DESCRIPTION": "Cuánto retroceder",
    "OPTION_MUSIC_SEEK_POSITION_DESCRIPTION": "Buscar a esta posición"
}
