{
    "COMMAND_MUSIC_BACK": "cofnij",
    "COMMAND_MUSIC_FASTFORWARD": "przewiń do przodu",
    "COMMAND_MUSIC_JOIN": "dołącz",
    "COMMAND_MUSIC_JUMP": "przeskocz",
    "COMMAND_MUSIC_LEAVE": "opuść",
    "COMMAND_MUSIC_PAUSE": "pauza",
    "COMMAND_MUSIC_PLAY": "odtwórz",
    "COMMAND_MUSIC_PROVIDERS": "dostawcy",
    "COMMAND_MUSIC_PURGE": "wyczyść",
    "COMMAND_MUSIC_QUEUE": "kolejka",
    "COMMAND_MUSIC_REMOVE": "usuń",
    "COMMAND_MUSIC_REMOVERANGE": "usuńzakres",
    "COMMAND_MUSIC_REPEAT": "powtórz",
    "COMMAND_MUSIC_REWIND": "przewiń",
    "COMMAND_MUSIC_SEEK": "szukaj",
    "COMMAND_MUSIC_SHUFFLE": "pomieszaj",
    "COMMAND_MUSIC_SKIP": "pomiń",
    "COMMAND_MUSIC_STOP": "zatrzymaj",
    "DESCRIPTION_MUSIC": "Odtwarzacz Muzyki Ayana",
    "DESCRIPTION_MUSIC_BACK": "Przewiń do poprzedniej piosenki",
    "DESCRIPTION_MUSIC_DEBUG": "Wyświetl informacje do debugowania muzyki",
    "DESCRIPTION_MUSIC_FASTFORWARD": "Przewiń do przodu aktualny utwór",
    "DESCRIPTION_MUSIC_JOIN": "Dołącz do kanału głosowego",
    "DESCRIPTION_MUSIC_JUMP": "Przewiń do określonej piosenki",
    "DESCRIPTION_MUSIC_LEAVE": "Opuść kanał",
    "DESCRIPTION_MUSIC_PAUSE": "Przełącz pauzę",
    "DESCRIPTION_MUSIC_PLAY": "Odtwórz kolejkę",
    "DESCRIPTION_MUSIC_PROVIDERS": "Pokaż listę wspieranych dostawców muzyki",
    "DESCRIPTION_MUSIC_PURGE": "Usuń wszystkie piosenki z kolejki",
    "DESCRIPTION_MUSIC_QUEUE": "Dodaj piosenki do kolejki",
    "DESCRIPTION_MUSIC_REMOVE": "Usuń piosenki z kolejki",
    "DESCRIPTION_MUSIC_REMOVERANGE": "Usuń piosenki spomiędzy dwiema pozycjami w kolejce",
    "DESCRIPTION_MUSIC_REPEAT": "Zarządzaj powtarzaniem",
    "DESCRIPTION_MUSIC_REWIND": "Przewiń do tyłu aktualny utwór",
    "DESCRIPTION_MUSIC_SEEK": "Przewiń do momentu w aktualnym utworze",
    "DESCRIPTION_MUSIC_SHUFFLE": "Potasuj kolejkę",
    "DESCRIPTION_MUSIC_SKIP": "Przewiń do następnego utworu",
    "DESCRIPTION_MUSIC_STOP": "Zatrzymaj odtwarzanie",
    "MUSIC_AUTHOR_NO_CHANNEL": "Wygląda na to, że nie znajdujesz się w kanale głosowym.",
    "MUSIC_AUTOLEAVE": ":no_entry_sign: Opuszczono kanał z powodu nieaktywności.",
    "MUSIC_BACKSKIPPED": ":arrow_backward: Przewinięto `{track}`.",
    "MUSIC_BACK_END": "Początek kolejki, nie można przewinąć.",
    "MUSIC_EXCEPTION": "Wystąpił \"{severity}\" błąd: {message}.",
    "MUSIC_JOIN_MESSAGE": ":white_check_mark: Połączono :speaker:`{voice}`.",
    "MUSIC_JUMPED": "Przewinięto do `{track}` na pozycji **{position}**",
    "MUSIC_LEAVE_MESSAGE": ":no_entry: Opuszczono oraz rozłączono kanały.",
    "MUSIC_NO_MATCHES": "Nie udało się znaleźć pasujących wyników",
    "MUSIC_NO_TRACK_AT_POSITION": "Nie ma utworu na tej pozycji.",
    "MUSIC_PAUSED": ":play_pause: Zatrzymano odtwarzanie.",
    "MUSIC_QUEUE": "Kolejka piosenek",
    "MUSIC_QUEUED": "Dodano `{track}` na pozycję **{position}**.",
    "MUSIC_QUEUED_PLAYLIST": "Dodano `{count}` utworów z `{playlist}`.",
    "MUSIC_QUEUE_CURRENT_FLARE": "{arrow} aktualny utwór",
    "MUSIC_QUEUE_EMPTY": "Kolejka jest pusta. Dodaj utwory, używając `music play`!",
    "MUSIC_QUEUE_PURGED": "Usunięto `{count}` utworów z kolejki.",
    "MUSIC_QUEUE_SHUFFLED": ":twisted_rightwards_arrows: Przetasowano `{count}` utworów.",
    "MUSIC_RANGE_START_ERROR": "Początek nie może być większy od końca lub {size}.",
    "MUSIC_REMOVED": "Usunięto `{track}` z kolejki.",
    "MUSIC_REMOVED_COUNT": "Usunięto `{count}` utworów z kolejki.",
    "MUSIC_REMOVE_CONFIRM": "Czy jesteś pewien, że chcesz usunąć `{track}` [y/n]:",
    "MUSIC_REMOVE_MULTI_CONFIRM": "Czy jesteś pewien, że chcesz usunąć `{count}` utworów z kolejki [y/n]:",
    "MUSIC_REPEAT_OFF": ":no_entry: Powtarzanie wyłączone.",
    "MUSIC_REPEAT_QUEUE": ":repeat: Powtarzanie całej kolejki włączone.",
    "MUSIC_REPEAT_TRACK": ":repeat_one: Powtarzanie jednego utworu.",
    "MUSIC_SEEK_FASTFORWARD": ":fast_forward: Przewinięto do `{position}`.",
    "MUSIC_SEEK_NOT_PLAYING": "Nie można przewinąć, kiedy nic nie jest odtwarzane.",
    "MUSIC_SEEK_NOT_SEEKABLE": "Aktualnego utworu nie można przewinąć",
    "MUSIC_SEEK_REWIND": ":rewind: Cofnięto do `{position}`.",
    "MUSIC_SEEK_TOO_LONG": "Przewijanie przekroczyło długość utworu",
    "MUSIC_SKIPPED": ":arrow_forward: Pominięto `{track}`.",
    "MUSIC_SKIP_END": "Koniec kolejki, nic do przewinięcia.",
    "MUSIC_STOPPED": ":stop_button: Zatrzymano odtwarzanie.",
    "MUSIC_TRACKS_CHOOSE": "Dopasowano wiele utworów, wybierz jeden z listy poniżej:",
    "MUSIC_TRACK_ERROR": "Wystąpił błąd podczas odtwarzania `{track}`: ```{error}```",
    "MUSIC_UNPAUSED": ":play_pause: Wznowiono odtwarzanie.",
    "OPTION_MUSIC_FASTFORWARD_AMOUNT_DESCRIPTION": "Liczba do przewinięcia",
    "OPTION_MUSIC_QUERY_DESCRIPTION": "Link lub fraza do wyszukania",
    "OPTION_MUSIC_QUERY_POSITION_DESCRIPTION": "Pozycja i tytuł",
    "OPTION_MUSIC_QUEUE_POSITION_DESCRIPTION": "Dodaj do kolejki za piosenką na pozycji",
    "OPTION_MUSIC_REPEAT_MODE_DESCRIPTION": "Tryb powtarzania",
    "OPTION_MUSIC_REWIND_AMOUNT_DESCRIPTION": "Liczba do przewinięcia",
    "OPTION_MUSIC_SEEK_POSITION_DESCRIPTION": "Przewiń do pozycji"
}
