{
    "WORD_ACTIVE": "Aktywny",
    "WORD_CANCELED": "Anulowano",
    "WORD_CHANNEL": "Kanały",
    "WORD_COLOR": "Kolor",
    "WORD_CONTAINER": "Kontener",
    "WORD_CREATED": "Utworzono",
    "WORD_DEVELOPERS": "Deweloperzy",
    "WORD_DISABLED_EVENTS": "Wyłączone wydarzenia",
    "WORD_ERROR": "Błąd",
    "WORD_HEADS": "Orzeł",
    "WORD_HOIST": "Wyświetlanie oddzielne",
    "WORD_HOSTNAME": "Nazwa hosta",
    "WORD_ID": "ID",
    "WORD_JOINED": "Dołączono",
    "WORD_LIBRARY": "Biblioteka",
    "WORD_MANAGED": "Zarządzany",
    "WORD_MEMBER": "Członkowie",
    "WORD_MENTION": "Wzmianka",
    "WORD_MENTIONABLE": "Można wspomnieć",
    "WORD_NAME": "Nazwa",
    "WORD_NEW_CHANNEL": "Nowy kanał",
    "WORD_NICKNAME": "Nazwa użytkownika",
    "WORD_NO": "Nie",
    "WORD_OLD_CHANNEL": "Stary kanał",
    "WORD_OWNER": "Właściciel",
    "WORD_PLATFORM": "Platforma",
    "WORD_POSITION": "Pozycja",
    "WORD_RAM": "Ram",
    "WORD_ROLE": "Rola",
    "WORD_ROLES": "Role",
    "WORD_SERVERS": "Serwery",
    "WORD_SHARD": "Shard",
    "WORD_TAILS": "Reszka",
    "WORD_TOPIC": "Temat",
    "WORD_TYPE": "Typ",
    "WORD_UNAVAILABLE": "Niedostępny",
    "WORD_UPTIME": "Czas pracy",
    "WORD_USER": "Użytkownik",
    "WORD_USERS": "Użytkownicy",
    "WORD_VERSION": "Wersja",
    "WORD_WEBSITE": "Strona",
    "WORD_YES": "Tak"
}
