{
    "DESCRIPTION_MUSIC": "Trình phát nhạc của Ayana",
    "DESCRIPTION_MUSIC_BACK": "Quay về bài trước",
    "DESCRIPTION_MUSIC_DEBUG": "Hiển thị thông tin debug về nhạc",
    "DESCRIPTION_MUSIC_FASTFORWARD": "Tua nhanh bài hát hiện tại",
    "DESCRIPTION_MUSIC_JOIN": "Tham gia kênh voice",
    "DESCRIPTION_MUSIC_JUMP": "Đi đến bài hát được chỉ định",
    "DESCRIPTION_MUSIC_LEAVE": "Rời kênh",
    "DESCRIPTION_MUSIC_PAUSE": "Tạm dừng",
    "DESCRIPTION_MUSIC_PLAY": "Phát hàng chờ",
    "DESCRIPTION_MUSIC_PROVIDERS": "Hiển thị danh sách các nhà cung cấp được hỗ trợ",
    "DESCRIPTION_MUSIC_PURGE": "Xóa toàn bộ bài hát trong hàng chờ",
    "DESCRIPTION_MUSIC_QUEUE": "Thêm (các) bài hát vào hàng chờ",
    "DESCRIPTION_MUSIC_REMOVE": "Xóa (các) bài hát khỏi hàng chờ",
    "DESCRIPTION_MUSIC_REMOVERANGE": "Xóa (các) bài hát giữa hai vị trí",
    "DESCRIPTION_MUSIC_REPEAT": "Quản lý tính năng lặp lại",
    "DESCRIPTION_MUSIC_REWIND": "Tua lùi bài hát hiện tại",
    "DESCRIPTION_MUSIC_SEEK": "Đi tới vị trí trong bài hát đang phát",
    "DESCRIPTION_MUSIC_SHUFFLE": "Phát hàng chờ ngẫu nhiên",
    "DESCRIPTION_MUSIC_SKIP": "Bỏ qua đến bài hát tiếp theo",
    "DESCRIPTION_MUSIC_STOP": "Dừng phát",
    "MUSIC_AUTHOR_NO_CHANNEL": "Bạn không ở trong một kênh voice nào cả.",
    "MUSIC_AUTOLEAVE": ":no_entry_sign: Rời kênh vì không có hoạt động nào.",
    "MUSIC_BACKSKIPPED": ":arrow_backward: Đã quay về `{track}`.",
    "MUSIC_BACK_END": "Bắt đầu hàng chờ, không có gì để trở về.",
    "MUSIC_EXCEPTION": "Một lỗi \"{severity}\" đã xảy ra: {message}.",
    "MUSIC_JOIN_MESSAGE": ":white_check_mark: Đã tham gia :speaker:`{voice}`.",
    "MUSIC_JUMPED": "Đã đi đến `{track}` tại vị trí **{position}**",
    "MUSIC_LEAVE_MESSAGE": ":no_entry: Đã rời và xóa hàng chờ của kênh.",
    "MUSIC_NO_MATCHES": "Không tìm thấy bất kỳ kết quả phù hợp nào",
    "MUSIC_PAUSED": ":play_pause: Phát lại đã tạm dừng.",
    "MUSIC_QUEUE": "Hàng chờ",
    "MUSIC_QUEUED": "Đã thêm `{track}` vào hàng chờ ở vị trí **{position}**.",
    "MUSIC_QUEUED_PLAYLIST": "Đã thêm `{count}` bài hát vào hàng đợi từ `{playlist}`.",
    "MUSIC_QUEUE_CURRENT_FLARE": "{arrow} bài hát hiện tại",
    "MUSIC_QUEUE_EMPTY": "Không có gì trong hàng chờ. Hãy thử thêm gì đó bằng cách dùng `music play`!",
    "MUSIC_QUEUE_PURGED": "Đã xóa `{count}` bài hát khỏi hàng chờ.",
    "MUSIC_QUEUE_SHUFFLED": ":twisted_rightwards_arrows: Đã phát ngẫu nhiên `{count}` bài hát.",
    "MUSIC_RANGE_START_ERROR": "Bắt đầu không thể lớn hơn kết thúc hoặc {size}.",
    "MUSIC_REMOVED": "Đã xóa `{track}` khỏi hàng chờ.",
    "MUSIC_REMOVED_COUNT": "Đã xóa `{count}` bài hát khỏi hàng chờ.",
    "MUSIC_REMOVE_CONFIRM": "Bạn có chắc chắn rằng muốn xóa `{track}` [y/n]:",
    "MUSIC_REMOVE_MULTI_CONFIRM": "Bạn có chắc chắn rằng muốn xóa `{count}` bài hát khỏi hàng chờ [y/n]:",
    "MUSIC_REPEAT_OFF": ":no_entry: Lặp lại đã tắt.",
    "MUSIC_REPEAT_QUEUE": ":repeat: Đang lặp lại hàng chờ.",
    "MUSIC_REPEAT_TRACK": ":repeat_one: Đang lặp lại bài hát.",
    "MUSIC_SEEK_FASTFORWARD": ":fast_forward: Đã tua nhanh đến `{position}`.",
    "MUSIC_SEEK_NOT_PLAYING": "Không thể tua khi chả có gì đang phát.",
    "MUSIC_SEEK_NOT_SEEKABLE": "Bài hát hiện tại không thể tua nhanh được",
    "MUSIC_SEEK_REWIND": ":rewind: Đã tua lùi tới `{position}`.",
    "MUSIC_SEEK_TOO_LONG": "Tua nhanh đã đạt đến độ dài tối đa của bài hát",
    "MUSIC_SKIPPED": ":arrow_forward: Đã bỏ qua `{track}`.",
    "MUSIC_SKIP_END": "Kết thúc hàng chờ, không thể bỏ qua.",
    "MUSIC_STOPPED": ":stop_button: Phát lại đã bị ngừng.",
    "MUSIC_TRACKS_CHOOSE": "Nhiều bài hát được tìm thấy, vui lòng chọn một:",
    "MUSIC_TRACK_ERROR": "Một lỗi đã xảy ra khi thử phát `{track}`: ```{error}```",
    "MUSIC_UNPAUSED": ":play_pause: Phát lại đã tiếp tục."
}
