{
    "AYANA_HELP_AUTHOR": "Halo! Saya Ayana!",
    "AYANA_HELP_DESCRIPTION": "Anda bisa lihat semua perintah yang saya tahu di bawah ini.\nJika Anda butuh bantuan dengan sesuatu, jangan ragu untuk bergabung ke [Server Support]({support}) kami.\n\n[Invite Saya]({invite}), [Invite Minimal]({minimal}), [Ayana PRO]({pro}), [Status Ayana]({status}), [Twitter]({twitter})\n\n**Semoga harimu menyenangkan!**",
    "AYANA_VERSION": "Versi Ayana",
    "BENTOCORD_VERSION": "Versi Bentocord",
    "BENTO_VERSION": "Versi Bento",
    "GATEWAY_FAILURE": "Gagal menghubungi Gateway. Silakan coba lagi nanti.",
    "GENERAL_ERROR": "Terjadi kesalahan. Jika Anda membutuhkan bantuan lebih lanjut, harap laporkan ini ke server dukungan kami (perintah `support` untuk mendapatkan undangan).\n```{error}```",
    "GUILD_LOCALE_UPDATED": "Bahasa lokal server telah diubah menjadi {locale}.",
    "LOCALIZATION_FAILURE": "Gagal menemukan terjemahan untuk `{key}`",
    "LOCALIZATION_FORMAT_FAILURE": "Gagal memformat terjemahan `{key}`: {error}",
    "SETTING_AFK_ACTIVE_DESCRIPTION": "Aktifkan atau Nonaktifkan lebar server pesan AFK.",
    "SETTING_FAREWELL_ACTIVE_DESCRIPTION": "Haruskah anggota yang meninggalkan server diumumkan",
    "SETTING_FAREWELL_CHANNEL_DESCRIPTION": "Kanal yang mana pesan perpisahan akan diumumkan",
    "SETTING_FAREWELL_DM_DESCRIPTION": "Mengirim pesan langsung ke anggota yang keluar sebagai gantinya",
    "SETTING_FAREWELL_TEXT_DESCRIPTION": "Teks yang akan digunakan saat mengucapkan selamat tinggal",
    "SETTING_GREETING_ACTIVE_DESCRIPTION": "Haruskah anggota yang bergabung dengan server diumumkan",
    "SETTING_GREETING_CHANNEL_DESCRIPTION": "Kanal yang dimana pesan sambutan akan diumumkan",
    "SETTING_GREETING_DM_DESCRIPTION": "Mengirim pesan langsung ke anggota yang bergabung sebagai gantinya",
    "SETTING_GREETING_TEXT_DESCRIPTION": "Teks yang digunakan saat memberi sambutan",
    "SETTING_MODLOG_ACTIVE_DESCRIPTION": "Haruskah tindakan moderator yang dilakukan melalui Ayana dicatat",
    "SETTING_MODLOG_CHANNEL_DESCRIPTION": "Kanal untuk mengumumkan modlog",
    "SETTING_PRO_PUBLIC_DESCRIPTION": "Izinkan setiap anggota untuk meningkatkan server ke Ayana PRO",
    "SETTING_SNEAK_ROLES_DESCRIPTION": "Rol diizinkan untuk menggunakan opsi `sneak` pada perintah say",
    "USER_LOCALE_UPDATED": "Bahasa lokal Anda telah diubah menjadi {locale}.",
    "VIEW_LOCALE_HEADER": "[Pengaturan Lokal Saat Ini]"
}
