{
    "ACTIONLOG_ACTIVE": "활성화/비활성화",
    "ACTIONLOG_CHANNEL": "활동 로그를 저장할 채널",
    "ACTIONLOG_CONFIG_TITLE": "활동 로그 설정",
    "ACTIONLOG_EVENTS": "특정 이벤트에 대한 로그 활성화/비활성화",
    "ACTIONLOG_MYCONFIG": "활동 로그 설정 표시",
    "ACTIONLOG_NOCHANNEL": "채널이 지정되지 않았어요.",
    "ACTIONLOG_NODISABLEDEVENTS": "비활성화된 이벤트가 없어요.",
    "ACTIONLOG_SUCCESSRESPONSE": "활동 로그 설정을 업데이트했어요.",
    "ACTIONLOG_VALIDCHANNEL": "올바른 채팅 채널을 입력해 주세요.",
    "ALIASES_ADD_EXECUTED": "별칭 `{name}`에 `{value}` 내용이 추가되었어요.",
    "ALIASES_ALREADY_USED": "별칭에 또 다른 별칭은 추가하실 수 없어요.",
    "ALIASES_AYANA_COMMAND": "추가하시려 한 별칭은 이미 Ayana가 사용 중이에요.",
    "ALIASES_EXISTS": "`{name}` 이름을 가진 별칭이 이미 존재하는 것 같아요. 다른 이름으로 지정해 주세요.",
    "ALIASES_LIMIT_REACHED": "별칭은 최대 `{limit}`개까지 만들 수 있어요. 별칭을 더 만드시려면 사용하지 않는 별칭을 제거해 주세요.",
    "ALIASES_MULTI_WORD_ERROR": "별칭은 한 단어로 지정되어야만 해요. 공백 문자는 허용되지 않아요.",
    "ALIASES_NOT_FOUND": "`{name}`(이)라는 이름을 가진 별칭을 찾지 못했어요.",
    "ALIASES_NO_ALIASES": "이 서버에는 별칭이 존재하지 않아요.",
    "ALIASES_REMOVE_EXECUTE": "별칭 `{name}` (이)가 제거되었어요.",
    "ALIASES_RENAME_EXECUTED": "별칭 `{name}` 의 이름이 `{newName}` (으)로 변경되었어요.",
    "ALIASES_SAME_NAME": "새 별칭의 이름이 기존 별칭의 이름과 동일한 것 같아요.",
    "ALIASES_UPDATE_EXECUTE": "별칭 `{name}`의 내용이 `{value}`으로 변경되었어요.",
    "ALIASES_USERARGS_EXECUTE": "별칭 `{name}`에 대한 사용자 인수 값이 `{value}`(으)로 설정되었어요.",
    "AVATAR_DIRECT_LINK": "[다이렉트 링크]({link})",
    "AVATAR_GLOBAL": "[기본 아바타]({link})",
    "AVATAR_SERVER": "[서버 아바타]({link})",
    "BIGTEXT_MUSTBENUMBERSMALLER": "{option}은 숫자여야 해요. <= {bound}",
    "BIGTEXT_OUTPUTTOOLARGE": "우와앗! 출력된 메세지가 2000글자보다 길어요!",
    "BOTLIST_ERROR": "carbonitex.net에서 봇 목록을 가져오지 못했어요.",
    "CHANNELINFO_BITRATE": "음성 비트레이트",
    "CHANNELINFO_CHANNEL_TYPE": "채널 유형",
    "CHANNELINFO_CONNECTED": "연결된 유저",
    "CHANNELINFO_OVERWRITE": "권한 무시",
    "CHANNELINFO_TEXT": "텍스트",
    "CHANNELINFO_VOICE": "음성",
    "FORTUNE_ERROR": "포춘 쿠키를 굽던 중 문제가 발생했어요. 만약 도움이 필요하시다면, 저희 서포트 서버에 알려주세요(`support` 명령어로 초대받으실 수 있어요).",
    "F_PAID": "**{username}** 님께서 조의를 표하셨어요.",
    "F_PAIDFOOTER": "금일 {daily} 회, 총 {all} 회",
    "F_PAIDFOR": "**{username}** 님께서 **{type}** 을(를) 위해 조의를 표하셨어요.",
    "F_PAIDSTATS": "오늘 하루 동안 **{daily}** 회의 조의를 표하셨어요. 총 **{all}** 회에요.",
    "INFO_FOOTER": "*Ayana의 제작자, 모든 샤드에 대한 자세한 정보를 보시려면 {prefix}shardinfo 명령어를 사용해 주세요.",
    "INFO_USEFUL_LINKS": "**유용한 링크**\n[봇 초대]({invite}), [최소 권한으로 초대]({inviteMin}), [Ayana 상태]({status}), [서포트 서버]({supportInvite}), [후원]({donate}), [트위터]({twitter}), [페이스북]({facebook})",
    "INVITE_ALPHA": "물론이죠 :ok_hand:\n저를 서버에 초대하시려면 아래의 링크를 눌러주세요:\n\n{invite}\n\n주의: Ayana Alpha에게 너무 많은 권한을 부여하지 마세요. 이 버전의 Ayana는 불안정할 수 있으며 이로 인해 서버에 문제가 발생했을 경우 저희가 책임지지 않아요.",
    "INVITE_PRO": "Ayana PRO는 별도의 호스팅을 두고 있는 Patreon 후원자들을 위한 Ayana 특전이에요.\n높은 품질의 재생능력, 빠른 반응성, 높은 안정성등 다양한 혜택을 얻을 수 있어요.\n\n자세한 정보를 보고 싶으시거나 후원을 원하시는 분은 {uri} 에서 확인해 주세요.\n또는 공용 Ayana를 {invite} 에서 추가하실 수 있어요.",
    "INVITE_TEXT": "물론이죠 :ok_hand:\n저를 초대하려면 아래의 링크 중 하나를 눌러주세요:\n\n보통 권한: {invite}\n최소 권한: {invitemin}",
    "KICK_TARGETHIGHERROLE": "{target} 님이 당신보다 더 높은 역할을 가지고 있으므로 수정할 수 없어요.",
    "KICK_TARGETHIGHERTHANBOT": "{target} 님이 저보다 더 높은 역할을 가지고 있으므로 수정할 수 없어요.",
    "PERMISSIONS_GRANT_TARGET": "`{permission}` 권한이 `{target}`님에게 부여되었어요.",
    "PERMISSIONS_GRANT_TARGET_CHANNEL": "`{permission}` 권한이 `{channel}`의 `{target}`님에게 부여되었어요.",
    "PERMISSIONS_INVALID_PERMISSION": "`{permission}`(이)라는 권한은 존재하지 않아요. `permissions list` 명령어를 사용해 사용 가능한 권한들의 목록을 살펴보세요.",
    "PERMISSIONS_LIST": "**권한 목록**\n\n명령어 권한은 공백이 `.`로 대체된다는 점을 제외하면 평소에 명령어를 사용할 때와 동일해요.\n예를 들면, `music join`이 `music.join`과 같은 방식으로 바뀌게 돼요.",
    "PERMISSIONS_LIST_ITEM_COMMAND": "{permission}: 명령어, 유저 기본값 = {user}, 관리자 기본값 = {admin}",
    "PERMISSIONS_RESETALL": "권한이 재설정되었어요.",
    "PERMISSIONS_RESETALL_CONFIRM": "이 작업은 영구적이며 되돌릴 수 없어요!\n정말 이 서버의 모든 권한을 재설정하시겠어요[y/n]?",
    "PERMISSIONS_RESET_TARGET": "`{target}`님의 `{permission}` 권한이 기본값으로 재설정되었어요.",
    "PERMISSIONS_RESET_TARGET_CHANNEL": "`{channel}`에서 `{target}`님의 `{permission}` 사용 권한이 기본값으로 재설정되었어요.",
    "PERMISSIONS_REVOKE_TARGET": "`{target}`님의 `{permission}` 사용 권한이 취소되었어요.",
    "PERMISSIONS_REVOKE_TARGET_CHANNEL": "`{channel}`에서 `{target}`님의 `{permission}` 사용 권한이 취소되었어요.",
    "PERMISSIONS_SHOW_ITEM": "{permission}: {state}",
    "PICK_DEBUG": "여러 옵션을 쉼표로 구분하여 입력해 주세요: {prefix}pick 옵션1, 옵션2, …",
    "PICK_LARGE_INPUT": "제가 고르려 했던 옵션의 입력 값이 너무 커요.",
    "PRUNE_ALREADYPRUNING": "누군가가 이미 이 채널에서 메시지 정리 명령어를 실행하셨어요! 완료될 때까지 잠시 기다려 주세요.",
    "PRUNE_AMOUNT": "지정된 수량만큼 메시지 정리",
    "PRUNE_ATTACHMENTS": "첨부 파일이 포함된 메시지만 정리",
    "PRUNE_BOTS": "전체 봇이 작성한 모든 메시지를 정리",
    "PRUNE_CHOOSEONE": "유저나 봇 중 하나를 선택해 주셔야 해요.",
    "PRUNE_DELETEDBYUSER": "유저에 의해 삭제된 메시지",
    "PRUNE_DONEPROCESSING": "끝! 아래에 정리 결과를 표시할게요.",
    "PRUNE_EMBEDS": "임베드를 포함하는 메시지만 정리",
    "PRUNE_FILTER": "특정 문자열을 포함하는 메시지만 정리",
    "PRUNE_FOOTER": "자동 삭제가 활성화되었어요. 이 메시지는 10초 후 자동으로 삭제돼요.",
    "PRUNE_INVITES": "디스코드 초대 링크가 포함된 메시지만 정리",
    "PRUNE_MESSAGEDELETING": "{count}개의 메시지를 삭제 중, 시간이 다소 걸릴 수 있어요.",
    "PRUNE_MESSAGEFETCHING": "메시지 가져오는 중, 시간이 다소 걸릴 수 있어요.",
    "PRUNE_MESSAGEFETCHINGWITHCOUNT": "{count}개의 메시지를 가져오는 중, 시간이 다소 걸릴 수 있어요.",
    "PRUNE_OLDMESSAGEDELETED": "오래된 메시지 삭제됨",
    "PRUNE_OLDMESSAGENOTDELETED": "오래된 메시지 삭제 안됨",
    "PRUNE_PINNED": "고정된 메시지도 포함하여 정리 (기본적으로는 정리되지 않음)",
    "PRUNE_REACTIONS": "메시지를 삭제하지 않고 해당 메시지에 달린 반응만을 제거",
    "PRUNE_REMOVEDBYUSER": "사용자의 반응이 제거된 메시지",
    "PRUNE_REMOVINGREACTIONS": "{count}개의 메시지에 달린 반응들을 삭제 중... 시간이 다소 걸릴 수 있어요.",
    "PRUNE_RESULTS": "정리 결과",
    "PRUNE_SILENT": "무음 모드. 정리가 끝난 후 정리 결과를 표시하지 않음",
    "PRUNE_SYSTEM": "시스템 메시지만을 삭제",
    "PRUNE_TOTALDELETED": "삭제된 메시지 수",
    "PRUNE_TOTALMSGSCANNED": "검색된 메시지 수",
    "PRUNE_TOTALMSGSREACTIONSREMOVED": "메시지 반응이 제거된 수",
    "PRUNE_UNTIL": "지정된 메시지에 도달할 때까지 메시지 정리",
    "PRUNE_USER": "특정 유저의 모든 메시지를 정리",
    "PRUNE_WRONGMESSAGEID": "지정하신 메시지 ID를 채널에서 찾지 못했어요.",
    "RANDOM_LIMIT_ERROR": "최솟값은 최댓값보다 클 수 없어요.",
    "RANDOM_RESPONSE": "{num} 번이 제가 뽑은 숫자에요.",
    "ROLE_ALREADYPROCESSING": "요청하셨던 역할 작업을 처리 중이에요.",
    "ROLE_BOTROLELOW": "`{role}` 역할은 저보다 높은 역할이라 역할을 수정하거나 사용할 수 없어요. 저를 더 높은 역할로 이동시켜주세요.",
    "ROLE_CANNOTUSEINROLENOTINROLE": "`inrole`, `notinrole`, `noroles` 옵션은 함께 사용할 수 없어요.",
    "ROLE_DONEPROCESSING": "끝! 유저 {amount} 명의 역할을 수정했어요.",
    "ROLE_INVALIDHEXCODE": "올바른 색상코드(HEX)를 사용하지 않으셨어요. 올바른 색상코드(HEX)의 형식은 다음과 같아요 : #F4C, #F77800.",
    "ROLE_MAXIMUMREACHED": "요청하신 작업이 유저 역할 변경의 최대치인 {limit} 개를 초과했어요.",
    "ROLE_MODIFIED": "`{role}` 역할이 수정되었어요.",
    "ROLE_NOOPTIONSSPECIFIED": "옵션을 지정하지 않으셨어요. 자세한 내용은 이 명령어에 대한 도움말을 확인해 주세요.",
    "ROLE_PLEASEWAIT": "요청하신 작업을 처리하는 동안 잠시 기다려 주세요. (처리된 유저 수 : {usersProcessed})",
    "ROLE_TOOMANYOPTIONS": "다음과 같은 옵션들은 함께 사용하실 수 없어요 : `user, users, bots`.",
    "ROLE_USERROLELOW": "당신이 가진 역할보다 `{role}` 역할이 더 높기 때문에 사용하거나 수정하실 수 없어요.",
    "SAY_FOOTER": "위의 메시지는 유저가 생성한 콘텐츠에요. 이 임베드를 제거하려면 `nosneak` 를 비활성화해주세요",
    "SERVERINFO_CHANNEL_COUNTS": "{text} 텍스트 / {voice} 음성",
    "SUPPORT_TEXT": "Ayana에 대한 지원, 제안 또는 버그를 발견하신 경우 서포트 서버에 참여해 주세요. {support}"
}