{
    "BENTOCORD_ADV_NOTEXIST": "Команды `{command}` не существует.",
    "BENTOCORD_ADV_NO_RECURSIVE": "Рекурсивное выполнение запрещено.",
    "BENTOCORD_PAGINATION_NAVIGATION": "Отправьте `<` или `>` для переключения страниц, `x` чтобы закрыть, или `p[номер]` чтобы перейти на страницу (например `p10`).",
    "BENTOCORD_PAGINATION_PAGE": "Страница {page}/{total}",
    "BENTOCORD_PING": "Понг!",
    "BENTOCORD_PING_COUNT": "Понг! `{s, number}с. {ms, number}мс.`",
    "BENTOCORD_PREFIX": "Текущий префикс: `{prefix}`.",
    "BENTOCORD_PREFIX_SET": "Префикс изменен на `{prefix}`.",
    "BENTOCORD_PRESENCE_UPDATED": "Статус обновлен!",
    "BENTOCORD_PROMPTMANAGER_UNLOAD": "Менеджер выгружается.",
    "BENTOCORD_PROMPT_CANCELED": "Предложение было отменено.",
    "BENTOCORD_PROMPT_CANCELED_MAX_ATTEMPTS": "Максимум невалидных попыток.",
    "BENTOCORD_PROMPT_CANCELED_NEW": "Новое предложение открыто.",
    "BENTOCORD_PROMPT_CANCELED_REASON": "Предложение было отменено: {reason}",
    "BENTOCORD_PROMPT_CANCELED_TIMEOUT": "Время ожидания ввода вышло.",
    "BENTOCORD_PROMPT_CHOICE": "Пожалуйста, выберите один из следующих вариантов:",
    "BENTOCORD_PROMPT_CHOICE_OPTION": "Пожалуйста, выберите один из следующих вариантов для аргумента `{option}`:",
    "BENTOCORD_PROMPT_CONFIRM": "Пожалуйста, подтвердите что вы хотите продолжить [y/n]:",
    "BENTOCORD_PROMPT_MISSING_PERMISSION": "Не похоже что у меня есть право Discord `{permission}`. Пожалуйста, предоставьте мне его для лучшего экспириенса.",
    "BENTOCORD_PROMPT_OPTION": "Пожалуйста, укажите ввод для аргумента `{option}` типа `{type}`:",
    "BENTOCORD_PROMPT_SUBCOMMAND": "Пожалуйста, укажите подкоманду:",
    "BENTOCORD_PROMPT_USAGE": "*Вы можете ответить через сообщение или команду `r`.*",
    "BENTOCORD_PROMPT_VALIDATE_ERROR": "**Не удалось подтвердить ввод. Пожалуйста, повторите еще раз.**",
    "BENTOCORD_SUPPRESSOR_BOT_OWNER": "Вы не являетесь владельцем бота.",
    "BENTOCORD_SUPPRESSOR_CHANNEL_DENIED": "Эта команда не может быть выполнена в этом канале.",
    "BENTOCORD_SUPPRESSOR_GUILD": "Эту команду можно выполнять только на сервере.",
    "BENTOCORD_SUPPRESSOR_GUILD_ADMIN": "Вы не администратор сервера.",
    "BENTOCORD_SUPPRESSOR_GUILD_DENIED": "Эта команда не может быть выполнена на этом сервере.",
    "BENTOCORD_SUPPRESSOR_GUILD_OWNER": "Вы не являетесь владельцем сервера.",
    "BENTOCORD_SUPPRESSOR_HALT": "Выполнение было остановлено `{suppressor}`: {message}",
    "BENTOCORD_SUPPRESSOR_ROLE": "Вы не обладаете необходимыми ролями.",
    "BENTOCORD_SUPPRESSOR_USER_DENIED": "Вам не разрешено выполнять эту команду."
}
