{
    "DESCRIPTION_MUSIC": "Музыкальный проигрыватель Айяны",
    "DESCRIPTION_MUSIC_BACK": "Вернуться к предыдущему треку",
    "DESCRIPTION_MUSIC_DEBUG": "Показать дебаг-информацию, относящуюся к музыке",
    "DESCRIPTION_MUSIC_FASTFORWARD": "Перемотать текущий трек",
    "DESCRIPTION_MUSIC_JOIN": "Присоединиться к голосовому каналу",
    "DESCRIPTION_MUSIC_JUMP": "Перейти к указанному треку",
    "DESCRIPTION_MUSIC_LEAVE": "Покинуть голосовой канал",
    "DESCRIPTION_MUSIC_PAUSE": "Переключить паузу",
    "DESCRIPTION_MUSIC_PLAY": "Проиграть треки из очереди",
    "DESCRIPTION_MUSIC_PROVIDERS": "Отобразить список поддерживаемых источников треков",
    "DESCRIPTION_MUSIC_PURGE": "Убрать все треки из очереди",
    "DESCRIPTION_MUSIC_QUEUE": "Добавить трек в очередь",
    "DESCRIPTION_MUSIC_REMOVE": "Удалить трек из очереди",
    "DESCRIPTION_MUSIC_REMOVERANGE": "Убрать треки между двумя позициями",
    "DESCRIPTION_MUSIC_REPEAT": "Управление режимом повтора",
    "DESCRIPTION_MUSIC_REWIND": "Перемотка текущего трека",
    "DESCRIPTION_MUSIC_SEEK": "Переместиться на позицию в текущем треке",
    "DESCRIPTION_MUSIC_SHUFFLE": "Перемешать треки в очереди",
    "DESCRIPTION_MUSIC_SKIP": "Перейти к следующему треку",
    "DESCRIPTION_MUSIC_STOP": "Завершить проигрывание",
    "MUSIC_AUTHOR_NO_CHANNEL": "Похоже, вы не в голосовом канале.",
    "MUSIC_AUTOLEAVE": ":no_entry_sign: Я покинула канал из-за неактивности.",
    "MUSIC_BACKSKIPPED": ":arrow_backward: Перемотано назад: `{track}`.",
    "MUSIC_BACK_END": "Ещё только начало очереди, нечего отматывать назад.",
    "MUSIC_EXCEPTION": "Произошла \"{severity}\" ошибка: {message}.",
    "MUSIC_JOIN_MESSAGE": ":white_check_mark: Присоединилась к :speaker:`{voice}`.",
    "MUSIC_JUMPED": "Перешла на трек `{track}` на позиции **{position}**",
    "MUSIC_LEAVE_MESSAGE": ":no_entry: Я вышла и отвязала каналы.",
    "MUSIC_NO_MATCHES": "Не удалось найти ничего подходящего по запросу",
    "MUSIC_PAUSED": ":play_pause: Воспроизведение на паузе.",
    "MUSIC_QUEUE": "Очередь воспроизведения",
    "MUSIC_QUEUED": "`{track}` добавлен в очередь на позицию **`{position}`**.",
    "MUSIC_QUEUED_PLAYLIST": "`{count}` треков из `{playlist}` добавлены в очередь.",
    "MUSIC_QUEUE_CURRENT_FLARE": "{arrow} текущий трек",
    "MUSIC_QUEUE_EMPTY": "В очереди пусто. Попробуйте добавить что-нибудь, используя `music play`!",
    "MUSIC_QUEUE_PURGED": "Убрано `{count}` треков из очереди.",
    "MUSIC_QUEUE_SHUFFLED": ":twisted_rightwards_arrows: Перемешано `{count}` треков.",
    "MUSIC_RANGE_START_ERROR": "Начальная точка отсчета не может быть больше, чем конечная или {size}.",
    "MUSIC_REMOVED": "Трек `{track}` убран из очереди.",
    "MUSIC_REMOVED_COUNT": "Из очереди убрано `{count}` треков.",
    "MUSIC_REMOVE_CONFIRM": "Вы уверены что хотите убрать `{track}` [y/n]:",
    "MUSIC_REMOVE_MULTI_CONFIRM": "Вы уверены, что хотите убрать `{count}` треков из очереди [y/n]:",
    "MUSIC_REPEAT_OFF": ":no_entry: Режим повтора выключен.",
    "MUSIC_REPEAT_QUEUE": ":repeat: Включен режим повтора очереди.",
    "MUSIC_REPEAT_TRACK": ":repeat_one: Включен режим повторения текущего трека.",
    "MUSIC_SEEK_FASTFORWARD": ":fast_forward: Перемотано на позицию `{position}`.",
    "MUSIC_SEEK_NOT_PLAYING": "Невозможно выполнить поиск, пока музыка не проигрывается.",
    "MUSIC_SEEK_NOT_SEEKABLE": "Текущий трек не является пригодным для поиска",
    "MUSIC_SEEK_REWIND": ":rewind: Перемотано на позицию `{position}`.",
    "MUSIC_SEEK_TOO_LONG": "Превышена длительность трека",
    "MUSIC_SKIPPED": ":arrow_forward: `{track}` пропущен.",
    "MUSIC_SKIP_END": "Конец очереди воспроизведения, пропускать нечего.",
    "MUSIC_STOPPED": ":stop_button: Проигрывание остановлено.",
    "MUSIC_TRACKS_CHOOSE": "Совпало несколько треков, пожалуйста, выберите один:",
    "MUSIC_TRACK_ERROR": "При попытке проиграть трек `{track}` произошла ошибка: ```{error}```",
    "MUSIC_UNPAUSED": ":play_pause: Проигрывание снято с паузы."
}
